<svg xmlns="http://www.w3.org/2000/svg" viewBox="0 0 286.46 286.46">
  <defs>
    <style>
      .cls-1 {
        fill: none;
        stroke-width: 3px;
      }

      .cls-1, .cls-3 {
        stroke: #228b22;
        stroke-miterlimit: 10;
      }

      .cls-2 {
        fill: #fff;
      }

      .cls-3 {
        fill: #228b22;
      }
    </style>
  </defs>
  <g id="Calque_2" data-name="Calque 2">
    <g id="Calque_1-2" data-name="Calque 1">
      <g>
        <circle class="cls-1" cx="143.23" cy="143.23" r="141.73"/>
        <g>
          <path class="cls-2" d="M251.1,75.64V220.5H35.37V66H251.1V75.2l-3.95-8.8-.63.36c-5.43,3.59-11,7-16.29,10.8a409.57,409.57,0,0,0-76.5,70c-1,1.22-1.54,1.27-2.82.25q-17.24-13.64-34.47-27.28a1.07,1.07,0,0,0-1.65,0c-2.65,2.2-5.34,4.35-8,6.53l-7.43,6.06,63.53,65.21c2.29-4.93,4.4-9.79,6.79-14.52,10-19.94,22.16-38.58,35.47-56.47a382.25,382.25,0,0,1,44.94-50.94A9.73,9.73,0,0,1,251.1,75.64Zm-52.61,22c3.25-2.72,6.29-5.24,9.3-7.81a1.67,1.67,0,0,0,.45-1.13c0-2.09,0-4.17,0-6.26-.06-7-5-12-12-12q-74.33,0-148.65,0a12.85,12.85,0,0,0-5.21,1.06c-4.66,2.14-6.8,6-6.8,11.08V208.14c0,.29,0,.58,0,.88a11.45,11.45,0,0,0,3,7.57A12,12,0,0,0,48,220.35q61.84,0,123.7,0c8.21,0,16.42,0,24.63,0,7,0,11.91-4.9,11.91-11.89q0-39.63,0-79.25c0-.3,0-.59-.1-1.2-3.09,4.21-6,8.18-8.89,12.12a4,4,0,0,0-.82,2.52q0,27.65,0,55.28a12.28,12.28,0,0,1-2.28,7.65c-2.55,3.41-6,4.76-10.22,4.75q-38.81,0-77.62,0H57.88a12.32,12.32,0,0,1-6.75-1.6c-4-2.45-5.74-6.05-5.73-10.68q0-22.41,0-44.84,0-29.13,0-58.25a12.31,12.31,0,0,1,1.54-6.54c2.44-4.08,6.12-5.87,10.82-5.86H186.07c.19,0,.37,0,.55,0a11.58,11.58,0,0,1,11.87,11.8C198.51,95.35,198.49,96.36,198.49,97.6Zm-82.83,19.74c1.11.88,2.14,1.75,3.24,2.53a3,3,0,0,0,1.56.57q26.39,0,52.76,0a1.55,1.55,0,0,0,1-.23c1.2-1.22,2.33-2.49,3.41-3.67H87.77v3.9H89c6,0,12.09-.15,18.13.07,3.18.12,5.9-.36,8-2.85A2.86,2.86,0,0,1,115.66,117.34Zm-34.51,33a9.8,9.8,0,1,0-9.93,9.54A9.59,9.59,0,0,0,81.15,150.3Zm-9.73,39.93a9.67,9.67,0,1,0,0-19.34,9.67,9.67,0,1,0,0,19.34Zm-.1-80.09a9.67,9.67,0,1,0,9.83,9.64A9.63,9.63,0,0,0,71.32,110.14Zm73.24,72.6.23-.36c-1-.88-2-1.72-2.9-2.67a2.63,2.63,0,0,0-2.11-.87q-26.11,0-52.23,0H86.21v3.88Zm-29.64-30.38.34-.42c-1.06-.93-2.09-1.91-3.21-2.79a2.91,2.91,0,0,0-1.6-.67c-7.72,0-15.45,0-23.18,0h-1v3.91Zm70.82,26.53c-3.53,0-7,0-10.39,0a.72.72,0,0,0-.54.26c-.66,1.16-1.28,2.33-2,3.59h12.89Z"/>
          <path class="cls-3" d="M251.1,75.64a9.73,9.73,0,0,0-1,.77,382.25,382.25,0,0,0-44.94,50.94c-13.31,17.89-25.44,36.53-35.47,56.47-2.39,4.73-4.5,9.59-6.79,14.52L99.35,133.13l7.43-6.06c2.67-2.18,5.36-4.33,8-6.53a1.07,1.07,0,0,1,1.65,0q17.22,13.67,34.47,27.28c1.28,1,1.78,1,2.82-.25a409.57,409.57,0,0,1,76.5-70c5.33-3.75,10.86-7.21,16.29-10.8l.63-.36,3.95,8.8Z"/>
          <path class="cls-3" d="M198.49,97.6c0-1.24,0-2.25,0-3.27a11.58,11.58,0,0,0-11.87-11.8c-.18,0-.36,0-.55,0H57.76c-4.7,0-8.38,1.78-10.82,5.86a12.31,12.31,0,0,0-1.54,6.54q0,29.13,0,58.25,0,22.43,0,44.84c0,4.63,1.77,8.23,5.73,10.68a12.32,12.32,0,0,0,6.75,1.6h50.47q38.81,0,77.62,0c4.19,0,7.67-1.34,10.22-4.75a12.28,12.28,0,0,0,2.28-7.65q0-27.65,0-55.28a4,4,0,0,1,.82-2.52c2.92-3.94,5.8-7.91,8.89-12.12.05.61.1.9.1,1.2q0,39.63,0,79.25c0,7-4.9,11.86-11.91,11.89-8.21,0-16.42,0-24.63,0q-61.85,0-123.7,0a12,12,0,0,1-9.36-3.76,11.45,11.45,0,0,1-3-7.57c0-.3,0-.59,0-.88V82.62c0-5.09,2.14-8.94,6.8-11.08a12.85,12.85,0,0,1,5.21-1.06q74.33-.08,148.65,0c7.05,0,11.95,4.92,12,12,0,2.09,0,4.17,0,6.26a1.67,1.67,0,0,1-.45,1.13C204.78,92.36,201.74,94.88,198.49,97.6Z"/>
          <path class="cls-3" d="M115.66,117.34a2.86,2.86,0,0,0-.46.34c-2.14,2.49-4.86,3-8,2.85-6-.22-12.09-.07-18.13-.07H87.77v-3.9h89.87c-1.08,1.18-2.21,2.45-3.41,3.67a1.55,1.55,0,0,1-1,.23q-26.39,0-52.76,0a3,3,0,0,1-1.56-.57C117.8,119.09,116.77,118.22,115.66,117.34Z"/>
          <path class="cls-3" d="M81.15,150.3a9.8,9.8,0,0,1-19.6-.19,9.8,9.8,0,0,1,19.6.19Z"/>
          <path class="cls-3" d="M71.42,190.23a9.67,9.67,0,1,1,9.73-9.73A9.54,9.54,0,0,1,71.42,190.23Z"/>
          <path class="cls-3" d="M71.32,110.14a9.67,9.67,0,1,1,0,19.33,9.67,9.67,0,1,1,0-19.33Z"/>
          <path class="cls-3" d="M144.56,182.74H86.21v-3.88h1.34q26.11,0,52.23,0a2.63,2.63,0,0,1,2.11.87c.91.95,1.93,1.79,2.9,2.67Z"/>
          <path class="cls-3" d="M114.92,152.36H86.22v-3.91h1c7.73,0,15.46,0,23.18,0a2.91,2.91,0,0,1,1.6.67c1.12.88,2.15,1.86,3.21,2.79Z"/>
          <path class="cls-3" d="M185.74,178.89v3.86H172.85c.68-1.26,1.3-2.43,2-3.59a.72.72,0,0,1,.54-.26C178.78,178.88,182.21,178.89,185.74,178.89Z"/>
        </g>
      </g>
    </g>
  </g>
</svg>
