<svg xmlns="http://www.w3.org/2000/svg" viewBox="0 0 286.46 286.46">
  <defs>
    <style>
      .cls-1 {
        fill: #fff;
      }

      .cls-2 {
        fill: #228b22;
      }

      .cls-2, .cls-3 {
        stroke: #228b22;
        stroke-miterlimit: 10;
      }

      .cls-3 {
        fill: none;
        stroke-width: 3px;
      }
    </style>
  </defs>
  <g id="Calque_2" data-name="Calque 2">
    <g id="Calque_1-2" data-name="Calque 1">
      <g>
        <g>
          <path class="cls-1" d="M46.75,239.72v-193h193v193ZM77,174.83a7.83,7.83,0,0,1,.87.24c12.74,4.54,25.48,9.06,38.2,13.67a3.88,3.88,0,0,1,1.69,1.83c2.33,4.34,4.24,9,7,13,3.48,5.22,8.54,7.55,15,6.14,4.32-.94,8.39-2.29,10.85-6.23a77.11,77.11,0,0,0,4.21-8.19,1.94,1.94,0,0,1,1.93-1.41c11.66-.58,23.33-1.15,35-1.92,2.74-.18,4.81.29,6.4,2.64a10.82,10.82,0,0,0,2.41,2.2c7.07,5.66,16.4,5.49,22.72-.84,2.44-2.44,4-5.71,6-8.59a5.36,5.36,0,0,1,1.41-1.66,6.07,6.07,0,0,0,3.34-5.08c.43-8.91.77-17.83,1.09-26.74a6.11,6.11,0,0,0-.63-2.39c-.7-1.71-1.48-3.38-2-4.59-1,.19-2.33.85-2.78.47-1.45-1.24-2.68-.77-4.07-.15a11.65,11.65,0,0,1-1.85.48c-.31-3.54-.65-6.9-.86-10.27a1.83,1.83,0,0,1,.9-1.29c2-1.17,4.09-2.24,6.26-3.41a8.19,8.19,0,0,0-3-4.71,43.64,43.64,0,0,0-16.44-8.13c-4.43-1-9-1.65-13.38-2.74a72.46,72.46,0,0,1-7.78-2.82c1.44-3.4,1.21-6.8-.36-7.92a5.72,5.72,0,0,0-6.37.56c-3.81-4.25-7.41-8.73-11.5-12.69A83.8,83.8,0,0,0,160.49,86a10.72,10.72,0,0,0-5.06-1.54c-9.92-.73-19.85-1.3-29.78-1.9A86.21,86.21,0,0,0,114.9,82c-8.14.51-16.25,1.33-24.36,2.13a21.83,21.83,0,0,0-16.08,9.08q-4.6,6.28-9,12.74a3.43,3.43,0,0,1-3.28,1.76c-3.78-.15-6.24,1.77-7.84,5.11a20.75,20.75,0,0,0-2.3,7.86c-.19,3.2-.68,6.38-.9,9.58-.54,7.56-1.21,15.14.22,22.67.75,3.92,2.83,7.52,2.58,11.7a37.48,37.48,0,0,0,.5,6.14,30.55,30.55,0,0,0,3.14,11.42c.92,1.7,2.11,2.72,4.27,2.53a44.54,44.54,0,0,1,7.12,0,4.17,4.17,0,0,0,4.28-2.33C74.56,180,75.68,177.51,77,174.83Zm147-28.48a5.94,5.94,0,0,0,.92-.18c1.53-.61,2.89-1.45,4.56.11.9.84,2.19-.16,2.08-1.32-.3-3.33-.89-6.64-1.44-10.46-2.37,1.37-4.23,2.35-6,3.52a2.4,2.4,0,0,0-.65,1.82C223.55,141.94,223.78,144,224,146.35Z"/>
          <path class="cls-2" d="M77,174.83c-1.31,2.68-2.43,5.18-3.73,7.58A4.17,4.17,0,0,1,69,184.74a44.54,44.54,0,0,0-7.12,0c-2.16.19-3.35-.83-4.27-2.53a30.55,30.55,0,0,1-3.14-11.42,37.48,37.48,0,0,1-.5-6.14c.25-4.18-1.83-7.78-2.58-11.7-1.43-7.53-.76-15.11-.22-22.67.22-3.2.71-6.38.9-9.58a20.75,20.75,0,0,1,2.3-7.86c1.6-3.34,4.06-5.26,7.84-5.11A3.43,3.43,0,0,0,65.47,106q4.38-6.45,9-12.74a21.83,21.83,0,0,1,16.08-9.08c8.11-.8,16.22-1.62,24.36-2.13a86.21,86.21,0,0,1,10.75.49c9.93.6,19.86,1.17,29.78,1.9A10.72,10.72,0,0,1,160.49,86a83.8,83.8,0,0,1,10.74,8.34c4.09,4,7.69,8.44,11.5,12.69a5.72,5.72,0,0,1,6.37-.56c1.57,1.12,1.8,4.52.36,7.92a72.46,72.46,0,0,0,7.78,2.82c4.42,1.09,8.95,1.69,13.38,2.74a43.64,43.64,0,0,1,16.44,8.13,8.19,8.19,0,0,1,3,4.71c-2.17,1.17-4.24,2.24-6.26,3.41a1.83,1.83,0,0,0-.9,1.29c.21,3.37.55,6.73.86,10.27a11.65,11.65,0,0,0,1.85-.48c1.39-.62,2.62-1.09,4.07.15.45.38,1.8-.28,2.78-.47.53,1.21,1.31,2.88,2,4.59a6.11,6.11,0,0,1,.63,2.39c-.32,8.91-.66,17.83-1.09,26.74a6.07,6.07,0,0,1-3.34,5.08,5.36,5.36,0,0,0-1.41,1.66c-2,2.88-3.61,6.15-6,8.59-6.32,6.33-15.65,6.5-22.72.84a10.82,10.82,0,0,1-2.41-2.2c-1.59-2.35-3.66-2.82-6.4-2.64-11.65.77-23.32,1.34-35,1.92a1.94,1.94,0,0,0-1.93,1.41,77.11,77.11,0,0,1-4.21,8.19c-2.46,3.94-6.53,5.29-10.85,6.23-6.46,1.41-11.52-.92-15-6.14-2.72-4.07-4.63-8.68-7-13a3.88,3.88,0,0,0-1.69-1.83c-12.72-4.61-25.46-9.13-38.2-13.67A7.83,7.83,0,0,0,77,174.83Zm63.75-2.89c-2.37-1.94-2.07-3.83-1.32-5.89s1-4.16,1.82-6.07c1.49-3.35.72-6.38-.81-9.36a4.16,4.16,0,0,0-1.82-1.8c-3.52-1.6-6.77-.84-9.68,1.54A20.27,20.27,0,0,0,123,159c-3.76,9.65-4,19.52-1.68,29.51a28.67,28.67,0,0,0,6.11,12.71c4.94,5.61,11.25,5.64,16-.14a36,36,0,0,0,4.21-7.29c.54-1.13.4-2.58.57-3.88l-.47,0-2.09,4.24c-1.61-3-2.89-5.74-4.5-8.28a4.89,4.89,0,0,1,0-5.9l5.76,2.15c.45-2.08-.37-2.93-2.16-3.19a33.07,33.07,0,0,1-3.4-.88c-.88-2.85-.46-5.12,2.17-6.64.22-.12.37-.36.59-.5,1.24-.8,1.48-1.81.48-3.35ZM210.54,135l0-.27c-7.51.86-15,1.68-22.53,2.59-2.39.29-3.55,2.35-2.76,4.73q3.08,9.3,6.22,18.59c1.29,3.8,3.39,5.29,7.43,5.48a72.4,72.4,0,0,0,18.89-1.9,4.89,4.89,0,0,0,4.2-4.57,66.86,66.86,0,0,0-.77-21.45,3.25,3.25,0,0,0-3.33-2.89C215.4,135.27,213,135.13,210.54,135Zm-39,42.19v-.55c-3,0-6,0-9,0-4.8,0-5.37.86-3.86,5.47.08.24.16.49.25.73,1.11,2.7,2.66,3.78,5.61,3.75,6.09-.08,12.18-.15,18.26-.35,4.07-.13,4.6-1,3.54-5-.14-.5-.3-1-.47-1.47a3.38,3.38,0,0,0-3.53-2.64C178.76,177.26,175.17,177.22,171.58,177.22ZM54.26,159.72c.4,4.79.49,8.34,1.06,11.8a37.12,37.12,0,0,0,2.35,8.28c1.16,2.74,3.14,2.7,4.58.11a15.26,15.26,0,0,0,1.5-3.73A67.82,67.82,0,0,0,64,144.57a13.84,13.84,0,0,0-1.58-3.89c-1.22-2.12-2.88-2.18-4.12-.1a14.38,14.38,0,0,0-1.87,4.59C55.52,150.4,54.85,155.67,54.26,159.72Zm167.66,15.67c-2.66.42-5.16.94-7.68,1.18-7.22.68-14.45,1.23-21.67,1.87-.62.06-1.57.27-1.76.69-1.16,2.57,1.34,6.24,4.11,6,6.33-.48,12.66-1,19-1.63,6.56-.64,6.58-.73,8-7.21A6,6,0,0,0,221.92,175.39Zm-152-65.09c3.12-5.46,6-10.62,9-15.65a7.92,7.92,0,0,1,3.49-3.15c6.59-2.66,13.37-4,20.46-2.1a7.22,7.22,0,0,1,5,4.39c3.54,8.15,4.46,16.91,6,25.63-2.93-.12-5.51-2.33-8.68-.53l10.28,3.4a23.6,23.6,0,0,0,0-3.4c-.41-2.6-.83-5.2-1.46-7.75q-2.28-9.33-4.79-18.6c-.82-3-2.87-4.62-6-5.3A34.37,34.37,0,0,0,82.79,89.3a6.07,6.07,0,0,0-2.74,2.3C76,98.18,72,104.84,68,111.48c-.08.13,0,.36,0,.3l30.11,4.67c-1.12-.76-1.77-1.52-2.54-1.67-4.08-.81-8.2-1.48-12.3-2.19Zm89.71,27.83-.05.35c-2.5,0-5,.05-7.51,0-1.33,0-1.73.48-1.48,1.72.44,2.14,1,4.26,1.24,6.42.47,4.23,2.89,6.14,7,6.41,2.43.15,5,.87,7.14-.6s4.62-1.69,7.16-1.48c1.85.16,3.71.22,5.57.32,1.61.1,2.15-.67,1.59-2.13-.8-2.09-1.7-4.14-2.57-6.21a4.57,4.57,0,0,0-3.77-2.91C169.17,139.36,164.41,138.75,159.65,138.13Zm74.4,36.28a14.81,14.81,0,0,0-.07-3.19c-.1-.45-1-1.16-1.32-1.06-2.41.87-4.77,1.88-7.11,2.92a1.89,1.89,0,0,0-.94,1.15,51.57,51.57,0,0,0-1.06,5.65c-.14,1.16.5,1.83,1.8,1.45,1.53-.45,3.07-.89,4.6-1.36C232.85,179.09,234.72,177.47,234.05,174.41ZM110.18,111.94c.16-2.1-.58-2.62-4.45-3.45-5.27-1.12-7.93-.66-8.85,1.94Zm7,68.05-25.7-7-.12.41,26.19,7.69v-3ZM85.88,126.25l5.66.9c.55-1.13.41-1.81-.8-2.1-1.41-.35-2.81-.78-4.39-1.22Zm31.74,49.18c1.11-5.73,2.43-12.61,3.64-18.88A59.31,59.31,0,0,0,117.62,175.43ZM67,121.91l4.68.76c0-1.78-1.22-2.51-4.43-2.88Zm33.68-7.33,0,.66c3.1.17,6.2.38,9.3.46.38,0,.77-.71,1.19-1.12Z"/>
          <path class="cls-2" d="M224,146.35c-.18-2.31-.41-4.41-.49-6.51a2.4,2.4,0,0,1,.65-1.82c1.73-1.17,3.59-2.15,6-3.52.55,3.82,1.14,7.13,1.44,10.46.11,1.16-1.18,2.16-2.08,1.32-1.67-1.56-3-.72-4.56-.11A5.94,5.94,0,0,1,224,146.35Z"/>
          <path class="cls-1" d="M140.74,171.94l3.85-4.42c1,1.54.76,2.55-.48,3.35-.22.14-.37.38-.59.5-2.63,1.52-3.05,3.79-2.17,6.64a33.07,33.07,0,0,0,3.4.88c1.79.26,2.61,1.11,2.16,3.19l-5.76-2.15a4.89,4.89,0,0,0,0,5.9c1.61,2.54,2.89,5.28,4.5,8.28l2.09-4.24.47,0c-.17,1.3,0,2.75-.57,3.88a36,36,0,0,1-4.21,7.29c-4.71,5.78-11,5.75-16,.14a28.67,28.67,0,0,1-6.11-12.71c-2.35-10-2.08-19.86,1.68-29.51a20.27,20.27,0,0,1,5.91-8.65c2.91-2.38,6.16-3.14,9.68-1.54a4.16,4.16,0,0,1,1.82,1.8c1.53,3,2.3,6,.81,9.36-.86,1.91-1.1,4.09-1.82,6.07S138.37,170,140.74,171.94Zm-5.1-3.8.59.44c.46-.41,1.2-.73,1.34-1.23,1.09-3.88,2.11-7.78,3-11.7a1.92,1.92,0,0,0-.84-1.69,18.12,18.12,0,0,0-4.27-.75c-.32,0-1,.78-1,1.17C134.81,159,135.24,163.55,135.64,168.14Zm3,16.08c-.66,1.06-1.47,1.74-1.44,2.39.2,4.47.58,8.94.91,13.61a9.51,9.51,0,0,0,5.77-3.74,1.61,1.61,0,0,0-.05-1.35C142.21,191.7,140.57,188.3,138.62,184.22ZM133.28,171c.54-1.26,1.17-2,1.09-2.7-.53-4.62-1.2-9.22-1.87-14.11a13.62,13.62,0,0,0-4.85,5,1.33,1.33,0,0,0,0,1.07C129.42,163.68,131.21,167.06,133.28,171Zm2.52,29.35c0-4.77,0-9.42-.05-14.07,0-.53-.82-1.05-1.5-1.87-1.12,3.72-2.11,7-3.09,10.3-.92,3.1-.64,3.7,2.4,5A16.78,16.78,0,0,0,135.8,200.34Zm-4.11-25.7a3.54,3.54,0,0,0-.32-4.42c-1.45-1.86-2.67-3.9-4-5.86-.4-.59-.82-1.16-1.56-2.22-.75,3-1.42,5.44-1.89,7.88a2,2,0,0,0,.86,1.7C127,172.78,129.36,173.67,131.69,174.64ZM124,184.83c2.71-1.79,5-3.25,7.25-4.81,1.1-.76.84-3.1-.36-3.44-2.42-.67-4.88-1.2-7.7-1.88C123.49,178.18,123.74,181.31,124,184.83Zm9-3.18-.84-.24c-2.17,2-4.36,3.92-6.48,5.93a1.47,1.47,0,0,0-.39,1.29c.93,2.28,2,4.51,3,6.76l.54-.09c1.27-3.33,2.62-6.63,3.78-10A16.8,16.8,0,0,0,133,181.65Z"/>
          <path class="cls-1" d="M210.54,135c2.43.1,4.86.24,7.3.31a3.25,3.25,0,0,1,3.33,2.89,66.86,66.86,0,0,1,.77,21.45,4.89,4.89,0,0,1-4.2,4.57,72.4,72.4,0,0,1-18.89,1.9c-4-.19-6.14-1.68-7.43-5.48q-3.16-9.27-6.22-18.59c-.79-2.38.37-4.44,2.76-4.73,7.5-.91,15-1.73,22.53-2.59Zm10.8,11.75c-.33-2.37-.54-4.19-.83-6-.47-2.94-.49-3-3.51-3.08a161.83,161.83,0,0,0-28.33,1.88c-1.7.23-2,1.19-1.59,2.57.52,1.65,1.26,3.23,1.71,4.89.33,1.25.93,1.67,2.16,1.47,3.92-.64,7.84-1.24,11.75-1.85.19,0,.48,0,.54-.14,1.22-2.15,3.76-1.61,4.89-1.13,2.18.94,4.18.28,6.23.49.44,0,.89.05,1.33.11Zm-13.71,9.9c-1.53-2.06-3.35-1.21-5-1.15-1.85.06-3.7.43-5.55.42s-3.51-.34-5.54-.56c.35,1.12.52,1.67.7,2.22,1.62,4.92,2.58,5.65,7.79,6a52.69,52.69,0,0,0,17.67-1.92,4.47,4.47,0,0,0,2.63-2.39,31,31,0,0,0,1-5.86c-1.34,0-2.47-.33-3.2.07-2.2,1.21-4.54.94-6.84,1.05C209.78,154.62,208.33,154.59,207.63,156.68Zm-3.2-3.63c-.55-3.64-.56-3.77-3.54-3.46-3.45.37-6.88,1-10.32,1.51-.1,0-.18.17-.33.31l.59,1.64Zm16.86-2.12-.09-2-12-.62.48,4.29Z"/>
          <path class="cls-1" d="M171.58,177.22c3.59,0,7.18,0,10.76,0a3.38,3.38,0,0,1,3.53,2.64c.17.49.33,1,.47,1.47,1.06,4,.53,4.83-3.54,5-6.08.2-12.17.27-18.26.35-2.95,0-4.5-1.05-5.61-3.75-.09-.24-.17-.49-.25-.73-1.51-4.61-.94-5.43,3.86-5.47,3,0,6,0,9,0Z"/>
          <path class="cls-1" d="M54.26,159.72c.59-4.05,1.26-9.32,2.17-14.55a14.38,14.38,0,0,1,1.87-4.59c1.24-2.08,2.9-2,4.12.1A13.84,13.84,0,0,1,64,144.57a67.82,67.82,0,0,1-.25,31.61,15.26,15.26,0,0,1-1.5,3.73c-1.44,2.59-3.42,2.63-4.58-.11a37.12,37.12,0,0,1-2.35-8.28C54.75,168.06,54.66,164.51,54.26,159.72Zm8.63-14.5c-.23,4-1.76,7.51-1,11.48C65,152.63,65.32,149.58,62.89,145.22Zm2.34,9-.48-.19c-.6,1-1.21,2-1.8,3.07-1.68,2.92-1.1,4.49,2.28,5.87Zm-3,8.91c-1,3.55.87,6.52,1.56,9.7.5-1.57.65-3.17,1.11-4.68C65.67,165.59,64.29,164.3,62.22,163.14Zm-1.78-20.7V154.1l.54,0c.48-3.24,1-6.47,1.35-9.73C62.38,143.9,61.29,143.28,60.44,142.44Zm.42,35.14.63.28c.53-.88,1.59-1.81,1.51-2.62-.3-2.82-1-5.59-1.54-8.38l-.6.08Zm-1.44-33.75c-2.11,2.85-1.81,8.66.53,11.6Zm.65,23.11-.47,0c-.44,2.7-1,5.39-1.25,8.11-.08,1,.71,2,1.1,3l.62-.23Zm-2.44,6.58c.46-3,1.76-6,1.55-9.43C56.45,167.11,55.71,170.11,57.63,173.52Zm1.19-15c.45-1.79-.72-6.52-2-8.06C56.55,153.4,54.58,156.72,58.82,158.49ZM56,166c4-4,4-5.57,0-6.84Z"/>
          <path class="cls-1" d="M221.92,175.39a6,6,0,0,1,0,.93c-1.43,6.48-1.45,6.57-8,7.21-6.32.63-12.65,1.15-19,1.63-2.77.21-5.27-3.46-4.11-6,.19-.42,1.14-.63,1.76-.69,7.22-.64,14.45-1.19,21.67-1.87C216.76,176.33,219.26,175.81,221.92,175.39Z"/>
          <path class="cls-1" d="M69.94,110.3l13.33,2.29c4.1.71,8.22,1.38,12.3,2.19.77.15,1.42.91,2.54,1.67L68,111.78c0,.06-.09-.17,0-.3,4-6.64,8-13.3,12.06-19.88a6.07,6.07,0,0,1,2.74-2.3,34.37,34.37,0,0,1,20.53-2.06c3.1.68,5.15,2.33,6,5.3q2.52,9.27,4.79,18.6c.63,2.55,1,5.15,1.46,7.75a23.6,23.6,0,0,1,0,3.4l-10.28-3.4c3.17-1.8,5.75.41,8.68.53-1.59-8.72-2.51-17.48-6-25.63a7.22,7.22,0,0,0-5-4.39c-7.09-1.88-13.87-.56-20.46,2.1A7.92,7.92,0,0,0,79,94.65C75.89,99.68,73.06,104.84,69.94,110.3Z"/>
          <path class="cls-1" d="M159.65,138.13c4.76.62,9.52,1.23,14.28,1.87a4.57,4.57,0,0,1,3.77,2.91c.87,2.07,1.77,4.12,2.57,6.21.56,1.46,0,2.23-1.59,2.13-1.86-.1-3.72-.16-5.57-.32-2.54-.21-4.91-.06-7.16,1.48s-4.71.75-7.14.6c-4.07-.27-6.49-2.18-7-6.41-.24-2.16-.8-4.28-1.24-6.42-.25-1.24.15-1.76,1.48-1.72,2.5.07,5,0,7.51,0ZM180,149.62a49.47,49.47,0,0,0-2.79-6.24,4.42,4.42,0,0,0-2.9-1.79c-4.2-.51-8.43-.72-12.65-1.08-2.85-.23-4.38.63-4.77,3.44a15,15,0,0,0,.51,5.6c.39,1.56,1.66,2.35,3.41,2.62,2.32.36,4.1-.56,6-1.62a6.43,6.43,0,0,1,2.83-.89C172.93,149.55,176.26,149.62,180,149.62Zm-26.14-9.5-2.58.19c1,3.22,1.83,6.22,2.85,9.16a2.53,2.53,0,0,0,3,1.94C156.09,147.71,155,144.05,153.86,140.12Zm4.84-.07h-3.47l.47,2.27Z"/>
          <path class="cls-1" d="M234.05,174.41c.67,3.06-1.2,4.68-4.1,5.56-1.53.47-3.07.91-4.6,1.36-1.3.38-1.94-.29-1.8-1.45a51.57,51.57,0,0,1,1.06-5.65,1.89,1.89,0,0,1,.94-1.15c2.34-1,4.7-2.05,7.11-2.92.3-.1,1.22.61,1.32,1.06A14.81,14.81,0,0,1,234.05,174.41Z"/>
          <path class="cls-1" d="M110.18,111.94l-13.3-1.51c.92-2.6,3.58-3.06,8.85-1.94C109.6,109.32,110.34,109.84,110.18,111.94Z"/>
          <path class="cls-1" d="M117.16,180l.37-1.87v3l-26.19-7.69.12-.41Z"/>
          <path class="cls-1" d="M85.88,126.25l.47-2.42c1.58.44,3,.87,4.39,1.22,1.21.29,1.35,1,.8,2.1Z"/>
          <path class="cls-1" d="M117.62,175.43a59.31,59.31,0,0,1,3.64-18.88C120.05,162.82,118.73,169.7,117.62,175.43Z"/>
          <path class="cls-1" d="M67,121.91l.25-2.12c3.21.37,4.43,1.1,4.43,2.88Z"/>
          <path class="cls-1" d="M100.69,114.58h10.45c-.42.41-.81,1.13-1.19,1.12-3.1-.08-6.2-.29-9.3-.46Z"/>
          <path class="cls-2" d="M135.64,168.14c-.4-4.59-.83-9.17-1.15-13.76,0-.39.67-1.19,1-1.17a18.12,18.12,0,0,1,4.27.75,1.92,1.92,0,0,1,.84,1.69c-.91,3.92-1.93,7.82-3,11.7-.14.5-.88.82-1.34,1.23Z"/>
          <path class="cls-2" d="M138.62,184.22c1.95,4.08,3.59,7.48,5.19,10.91a1.61,1.61,0,0,1,.05,1.35,9.51,9.51,0,0,1-5.77,3.74c-.33-4.67-.71-9.14-.91-13.61C137.15,186,138,185.28,138.62,184.22Z"/>
          <path class="cls-2" d="M133.28,171c-2.07-3.93-3.86-7.31-5.61-10.71a1.33,1.33,0,0,1,0-1.07,13.62,13.62,0,0,1,4.85-5c.67,4.89,1.34,9.49,1.87,14.11C134.45,169,133.82,169.73,133.28,171Z"/>
          <path class="cls-2" d="M135.8,200.34a16.78,16.78,0,0,1-2.24-.65c-3-1.29-3.32-1.89-2.4-5,1-3.29,2-6.58,3.09-10.3.68.82,1.48,1.34,1.5,1.87C135.85,190.92,135.8,195.57,135.8,200.34Z"/>
          <path class="cls-2" d="M131.69,174.64c-2.33-1-4.66-1.86-6.91-2.92a2,2,0,0,1-.86-1.7c.47-2.44,1.14-4.84,1.89-7.88.74,1.06,1.16,1.63,1.56,2.22,1.33,2,2.55,4,4,5.86A3.54,3.54,0,0,1,131.69,174.64Z"/>
          <path class="cls-2" d="M124,184.83c-.28-3.52-.53-6.65-.81-10.13,2.82.68,5.28,1.21,7.7,1.88,1.2.34,1.46,2.68.36,3.44C129,181.58,126.73,183,124,184.83Z"/>
          <path class="cls-2" d="M133,181.65a16.8,16.8,0,0,1-.42,3.65c-1.16,3.37-2.51,6.67-3.78,10l-.54.09c-1-2.25-2-4.48-3-6.76a1.47,1.47,0,0,1,.39-1.29c2.12-2,4.31-4,6.48-5.93Z"/>
          <path class="cls-2" d="M221.34,146.78l-5.65-.79c-.44-.06-.89-.07-1.33-.11-2.05-.21-4.05.45-6.23-.49-1.13-.48-3.67-1-4.89,1.13-.06.11-.35.11-.54.14-3.91.61-7.83,1.21-11.75,1.85-1.23.2-1.83-.22-2.16-1.47-.45-1.66-1.19-3.24-1.71-4.89-.42-1.38-.11-2.34,1.59-2.57A161.83,161.83,0,0,1,217,137.7c3,.12,3,.14,3.51,3.08C220.8,142.59,221,144.41,221.34,146.78Z"/>
          <path class="cls-2" d="M207.63,156.68c.7-2.09,2.15-2.06,3.67-2.13,2.3-.11,4.64.16,6.84-1.05.73-.4,1.86-.07,3.2-.07a31,31,0,0,1-1,5.86,4.47,4.47,0,0,1-2.63,2.39A52.69,52.69,0,0,1,200,163.6c-5.21-.34-6.17-1.07-7.79-6-.18-.55-.35-1.1-.7-2.22,2,.22,3.79.55,5.54.56s3.7-.36,5.55-.42C204.28,155.47,206.1,154.62,207.63,156.68Z"/>
          <path class="cls-2" d="M204.43,153.05h-13.6l-.59-1.64c.15-.14.23-.29.33-.31,3.44-.52,6.87-1.14,10.32-1.51C203.87,149.28,203.88,149.41,204.43,153.05Z"/>
          <path class="cls-2" d="M221.29,150.93l-11.6,1.63-.48-4.29,12,.62Z"/>
          <path class="cls-2" d="M62.89,145.22c2.43,4.36,2.14,7.41-1,11.48C61.13,152.73,62.66,149.26,62.89,145.22Z"/>
          <path class="cls-2" d="M65.23,154.23V163c-3.38-1.38-4-2.95-2.28-5.87.59-1,1.2-2.05,1.8-3.07Z"/>
          <path class="cls-2" d="M62.22,163.14c2.07,1.16,3.45,2.45,2.67,5-.46,1.51-.61,3.11-1.11,4.68C63.09,169.66,61.2,166.69,62.22,163.14Z"/>
          <path class="cls-2" d="M60.44,142.44c.85.84,1.94,1.46,1.89,2-.31,3.26-.87,6.49-1.35,9.73l-.54,0Z"/>
          <path class="cls-2" d="M60.86,177.58V166.94l.6-.08c.55,2.79,1.24,5.56,1.54,8.38.08.81-1,1.74-1.51,2.62Z"/>
          <path class="cls-2" d="M59.42,143.83l.53,11.6C57.61,152.49,57.31,146.68,59.42,143.83Z"/>
          <path class="cls-2" d="M60.07,166.94v10.87l-.62.23c-.39-1-1.18-2-1.1-3,.23-2.72.81-5.41,1.25-8.11Z"/>
          <path class="cls-2" d="M57.63,173.52c-1.92-3.41-1.18-6.41,1.55-9.43C59.39,167.56,58.09,170.48,57.63,173.52Z"/>
          <path class="cls-2" d="M58.82,158.49c-4.24-1.77-2.27-5.09-2-8.06C58.1,152,59.27,156.7,58.82,158.49Z"/>
          <path class="cls-2" d="M56,166v-6.84C60,160.4,60,162,56,166Z"/>
          <path class="cls-2" d="M180,149.62c-3.74,0-7.07-.07-10.4,0a6.43,6.43,0,0,0-2.83.89c-1.86,1.06-3.64,2-6,1.62-1.75-.27-3-1.06-3.41-2.62a15,15,0,0,1-.51-5.6c.39-2.81,1.92-3.67,4.77-3.44,4.22.36,8.45.57,12.65,1.08a4.42,4.42,0,0,1,2.9,1.79A49.47,49.47,0,0,1,180,149.62Z"/>
          <path class="cls-2" d="M153.86,140.12c1.15,3.93,2.23,7.59,3.31,11.29a2.53,2.53,0,0,1-3-1.94c-1-2.94-1.86-5.94-2.85-9.16Z"/>
          <path class="cls-2" d="M158.7,140.05l-3,2.27-.47-2.27Z"/>
        </g>
        <circle class="cls-3" cx="143.23" cy="143.23" r="141.73"/>
      </g>
    </g>
  </g>
</svg>
