<svg xmlns="http://www.w3.org/2000/svg" viewBox="0 0 286.46 286.46">
  <defs>
    <style>
      .cls-1 {
        fill: none;
        stroke-width: 3px;
      }

      .cls-1, .cls-3, .cls-5, .cls-8 {
        stroke: #228b22;
      }

      .cls-1, .cls-2, .cls-3, .cls-5, .cls-8 {
        stroke-miterlimit: 10;
      }

      .cls-2 {
        fill: #fff;
        stroke: #fff;
      }

      .cls-10, .cls-3, .cls-5, .cls-8 {
        fill: #228b22;
      }

      .cls-3 {
        opacity: 0.2;
      }

      .cls-4 {
        fill: #22b822;
      }

      .cls-6 {
        fill: #f7d77f;
      }

      .cls-7 {
        fill: #e6e6e6;
      }

      .cls-8 {
        opacity: 0.42;
      }

      .cls-9 {
        fill: #dae7e8;
      }

      .cls-11 {
        opacity: 0.28;
      }

      .cls-12 {
        fill: #8cad81;
      }
    </style>
  </defs>
  <g id="Calque_2" data-name="Calque 2">
    <g id="Calque_1-2" data-name="Calque 1">
      <g>
        <circle class="cls-1" cx="143.23" cy="143.23" r="141.73"/>
        <g>
          <rect class="cls-2" x="48" y="52.88" width="190.47" height="180.7"/>
          <g>
            <g>
              <path class="cls-3" d="M195.42,79.32l-.08-.09H91.87l.23.25h-.95A10.89,10.89,0,0,0,80.26,90.37V200.52H71.12l-.08.09a14.54,14.54,0,0,0,0,18.61l.08.09H174.73a11.86,11.86,0,0,0,11.86-11.86V98h8.75l.08-.09A14.54,14.54,0,0,0,195.42,79.32Z"/>
              <path class="cls-4" d="M88.48,95.33H192l.08-.1a14.54,14.54,0,0,0,0-18.61l-.08-.09H88.48l.51.55a13,13,0,0,1-.42,18.16Z"/>
              <path class="cls-5" d="M171.34,216.62H76.87V87.68a10.9,10.9,0,0,1,10.89-10.9h92.43s9.59-.57,9.4,0c-6.73.14-6.39,18.8-6.39,18.8V204.76A11.86,11.86,0,0,1,171.34,216.62Z"/>
              <path class="cls-4" d="M171.21,216.62H67.73l-.07-.1a14.51,14.51,0,0,1,0-18.61l.07-.09H171.21l-.52.55c-4.8,5.17-5.61,14,.52,18.25Z"/>
              <rect class="cls-6" x="99.85" y="97.63" width="64.28" height="5.41"/>
              <rect class="cls-4" x="144.34" y="189.55" width="28.74" height="1.76"/>
              <rect class="cls-7" x="90.91" y="113.21" width="82.17" height="2.2"/>
              <rect class="cls-7" x="90.91" y="123.99" width="82.17" height="2.2"/>
              <rect class="cls-7" x="90.91" y="134.78" width="82.17" height="2.2"/>
              <rect class="cls-7" x="90.91" y="145.57" width="82.17" height="2.2"/>
              <rect class="cls-7" x="90.91" y="156.35" width="82.17" height="2.2"/>
              <rect class="cls-7" x="90.91" y="177.93" width="82.17" height="2.2"/>
              <rect class="cls-7" x="90.91" y="167.14" width="82.17" height="2.2"/>
            </g>
            <path class="cls-5" d="M229.45,103.47l-.26-.15-9.72-5.83a.26.26,0,0,0-.35.09l-.62,1a.26.26,0,0,0,.08.36l9.51,5.69a.27.27,0,0,1,.09.36L220,118.71a.26.26,0,0,0,.09.35l1,.59a.26.26,0,0,0,.35-.09l9.09-15.16a.27.27,0,0,0-.09-.36Z"/>
            <polygon class="cls-8" points="177.03 182.36 174.07 180.59 180.09 166.72 186.98 170.85 177.03 182.36"/>
            <polygon class="cls-9" points="177.03 182.36 174.07 180.59 172.52 181.59 171.16 187.65 171.95 188.12 176.79 184.06 177.03 182.36"/>
            <rect class="cls-10" x="182.94" y="163.82" width="0.89" height="10.08" rx="0.44" transform="translate(-55.73 239.33) rotate(-59.06)"/>
            <rect class="cls-10" x="182.3" y="164.89" width="0.89" height="10.08" rx="0.44" transform="translate(-56.96 239.3) rotate(-59.06)"/>
            <g>
              <path class="cls-5" d="M174.38,184.53a.64.64,0,0,1-.88.23.66.66,0,0,1-.23-.89.64.64,0,0,1,.89-.22A.63.63,0,0,1,174.38,184.53Z"/>
              <rect class="cls-5" x="170.63" y="186.03" width="4.01" height="0.31" transform="translate(-75.82 238.52) rotate(-59.06)"/>
            </g>
            <g>
              <path class="cls-3" d="M233.46,105.8l-1-.58-.25-.16-.46-.28,1.48-2.4a.33.33,0,0,0-.11-.44l-8.11-5a.32.32,0,0,0-.44.11l-1.48,2.4-.54-.34a.26.26,0,0,0-.35.09l-.64,1a.26.26,0,0,0,.09.35l.54.33-12.72,20.7a.33.33,0,0,0,.11.44l.74.45-27.74,45.14-.58-.35a.44.44,0,0,0-.61.15h0a.45.45,0,0,0,.14.61l.64.39-.14.33-.68-.42a.45.45,0,0,0-.61.15h0a.44.44,0,0,0,.15.6l.78.48-2.58,5.76h0l-2.84,6.35-1.57,1-1.42,6,.78.48,4.89-4,.25-1.7,4.64-5.25h0l4.2-4.75.69.43a.44.44,0,0,0,.61-.15h0a.45.45,0,0,0-.15-.61l-.56-.35.24-.27.51.32a.45.45,0,0,0,.61-.15h0a.44.44,0,0,0-.14-.6l-.43-.26,26.47-43.06,1.28-2.09.53.34a.32.32,0,0,0,.44-.11l12.72-20.69.24.14a.26.26,0,0,1,.08.36l-8.35,13.6a.25.25,0,0,0,.08.35l1,.6a.25.25,0,0,0,.35-.08l9.26-15.07A.25.25,0,0,0,233.46,105.8Z"/>
              <polygon class="cls-4" points="181.61 177.06 176.84 174.21 180.09 166.73 211.03 115.11 217.92 119.24 187 170.81 181.61 177.06"/>
              <rect class="cls-4" x="203.68" y="105.3" width="29.46" height="10.17" rx="0.32" transform="matrix(0.51, -0.86, 0.86, 0.51, 11.44, 240.96)"/>
              <polygon class="cls-11" points="207.5 121.01 214.38 125.14 210.57 131.49 207.5 121.01"/>
            </g>
            <rect class="cls-12" x="99.85" y="97.63" width="9.07" height="5.41"/>
          </g>
        </g>
      </g>
    </g>
  </g>
</svg>
