<svg xmlns="http://www.w3.org/2000/svg" viewBox="0 0 286.46 286.46">
  <defs>
    <style>
      .cls-1 {
        fill: none;
        stroke-width: 3px;
      }

      .cls-1, .cls-3 {
        stroke: #228b22;
        stroke-miterlimit: 10;
      }

      .cls-2 {
        fill: #fff;
      }

      .cls-3 {
        fill: #228b22;
      }
    </style>
  </defs>
  <g id="Calque_2" data-name="Calque 2">
    <g id="Calque_1-2" data-name="Calque 1">
      <g>
        <circle class="cls-1" cx="143.23" cy="143.23" r="141.73"/>
        <g>
          <path class="cls-2" d="M238.18,238.18H48.29V48.29H238.18ZM187,202.36c.27-.41.55-.89.88-1.33,2.94-3.92,2.88-8.26.89-12.31s-5.91-5.23-10.29-5.1c-3.92.12-7.85-.12-11.76.11-3.36.19-4.64-.81-4.6-4.45q.28-22,0-44.05c-.05-3.15.81-4.7,3.7-6,5-2.25,7.51-6.49,7.58-12,.08-5.75-2.43-10.31-7.62-12.44-3.56-1.47-3.95-3.59-3.92-6.74.13-14.4.07-28.81.26-43.21,0-3.16-.71-4.84-4.16-4.5-3.75.37-7.57.29-11.23,1a63.69,63.69,0,0,0-11.15,3.55c-3.48,1.41-7.28,2.75-10,5.2s-5.9,3.45-8.19,6c-3.76,4.12-7.49,8.29-11,12.66-.78,1-.41,2.87-.57,4.34,1.47-.63,3.33-.89,4.35-2,4-4.11,7.27-8.9,11.5-12.67,8.9-7.94,19.69-12,31.43-13.68,2.57-.36,4.43.23,4.42,3.39-.07,14.14,0,28.28-.23,42.42a4.62,4.62,0,0,1-2.34,3.34c-5.47,2.5-8.7,6.43-8.93,12.53-.25,6.3,2.81,10.5,8.28,13.41,1.43.77,3.13,2.74,3.15,4.17q.26,23.1-.15,46.2c0,1.17-1.89,3.17-3.06,3.29a63.06,63.06,0,0,1-11.74.08c-5.47-.42-8.45-3.12-8.65-7.91a14.93,14.93,0,0,0-7.2-12.52c-21.72-14.38-32.74-43.2-22.61-69.89.47-1.25-.4-3-.64-4.54-1.21,1-3,1.79-3.52,3.08a63.09,63.09,0,0,0,22.28,73.72c4.1,3,7,6.07,7.3,11.46.11,2.21,1.79,4.32,2.59,6.54.34.92.73,2.42.28,2.92-5,5.54-3,10.91.22,16.35-.64.95-1.34,1.83-1.87,2.8-3.55,6.54-.21,14.44,7,15.75,3,.55,4.24,1.9,5.32,4.65,3.12,7.88,9.3,11.43,18.31,11.14,7-.23,13-4.73,15.4-12.12.93-2.93,2.93-3.23,5.21-3.78a10.3,10.3,0,0,0,7.5-13.91A47,47,0,0,0,187,202.36ZM179.56,174c-3-3.49-5.72-7-8.77-10.2-.86-.9-2.56-1-3.88-1.46.11,1.49-.33,3.39.42,4.39,2.77,3.68,6,7,8.94,10.56,1.79,2.16,3.45,2.13,5.78.67,5.21-3.26,10.57-6.29,15.93-9.32,7-3.95,7.2-4,4.05-11.42-2.35-5.54-3.79-10.73,1.19-15.64a6.63,6.63,0,0,0,1.54-3c.78-2.94,2.9-3.76,5.59-4.15a63.12,63.12,0,0,0,10.26-2,5,5,0,0,0,2.83-3.68c.27-7.69.06-15.39.19-23.09.05-2.76-1-4.09-3.7-4.51-3.86-.61-7.69-1.4-11.5-2.25a4.75,4.75,0,0,1-2.71-1.51c-7.24-10.47-7.29-11.17-2.62-23.2.15-.39.27-.79.45-1.17,1.22-2.45.61-4.18-1.81-5.54-6.82-3.85-13.52-7.92-20.4-11.65-1.15-.62-3.63-.59-4.38.2a143.3,143.3,0,0,0-10,11.89c-.61.8-.15,2.41-.18,3.65,1.14-.33,2.64-.31,3.37-1,2.64-2.69,4.87-5.79,7.58-8.39a4.41,4.41,0,0,1,4.05-.6c5,2.54,9.71,5.54,14.65,8.16,2.25,1.2,2.64,2.55,1.6,4.72-.66,1.38-.93,3-1.65,4.29-2.71,5-1.22,8.89,1.15,14,3.93,8.56,9.74,12.09,18.46,12.41,2.33.09,3,1.36,3,3.57-.08,4.9-.21,9.82.11,14.7.26,3.87-1.09,5.28-5,5.88-5.77.91-10.86,1.55-14.78,8.38-4.58,8-5.49,14.41-1.39,22.19.47.89-.3,3.31-1.22,3.89C191.28,167.29,185.56,170.48,179.56,174Zm7.79-59.31c-1-2.71-2.12-8-4.64-12.49a23.53,23.53,0,0,0-13.26-10.7c-.89-.3-2.14.48-3.23.75a10.59,10.59,0,0,0,1.41,3.14c.71.76,2,1,3,1.52A22.4,22.4,0,0,1,182.24,120c-1.27,8.4-5.74,14.29-13.39,18-1.2.58-1.85,2.31-2.75,3.51,1.58.18,3.44,1,4.67.45C181.37,137.16,186.55,128.63,187.35,114.68ZM104.88,67.73c-.58-1.48-.63-2.15-1-2.48-5.3-4.71-10.6-9.42-16-14-.51-.43-2.2,0-2.9.56a2.67,2.67,0,0,0,.11,2.59c5.27,4.76,10.61,9.45,16.1,13.94C101.76,68.86,103.44,68,104.88,67.73Zm-37.17,83c7.05-2.51,13.87-4.89,20.63-7.44a2.59,2.59,0,0,0,.82-2.43c-.45-.74-1.87-1.61-2.54-1.39q-9.93,3.2-19.7,6.86c-.69.26-1.29,1.79-1.23,2.68C65.73,149.64,67,150.17,67.71,150.74Zm44.12,23.51c-.59-.7-1.15-1.84-1.6-1.8a5.23,5.23,0,0,0-3.23,1.22c-4.15,4.51-8.22,9.1-12.1,13.85-.77.95-.59,2.68-.85,4,1.45-.4,3.4-.33,4.28-1.27,4.2-4.46,8.11-9.19,12.1-13.84A19.86,19.86,0,0,0,111.83,174.25ZM62.09,96.65l-.36,1.57c1.54.87,3,2.14,4.63,2.52q8.36,1.91,16.83,3.21c1.1.17,2.41-1,3.63-1.56-.86-.88-1.59-2.32-2.59-2.55C77.85,98.4,71.43,97.19,65,96,64.09,95.87,63.06,96.43,62.09,96.65Z"/>
          <path class="cls-3" d="M187,202.36a47,47,0,0,1,2.43,4.95,10.3,10.3,0,0,1-7.5,13.91c-2.28.55-4.28.85-5.21,3.78-2.37,7.39-8.42,11.89-15.4,12.12-9,.29-15.19-3.26-18.31-11.14-1.08-2.75-2.29-4.1-5.32-4.65-7.17-1.31-10.51-9.21-7-15.75.53-1,1.23-1.85,1.87-2.8-3.26-5.44-5.21-10.81-.22-16.35.45-.5.06-2-.28-2.92-.8-2.22-2.48-4.33-2.59-6.54-.27-5.39-3.2-8.5-7.3-11.46A63.09,63.09,0,0,1,99.91,91.79c.49-1.29,2.31-2.07,3.52-3.08.24,1.52,1.11,3.29.64,4.54-10.13,26.69.89,55.51,22.61,69.89a14.93,14.93,0,0,1,7.2,12.52c.2,4.79,3.18,7.49,8.65,7.91a63.06,63.06,0,0,0,11.74-.08c1.17-.12,3-2.12,3.06-3.29q.39-23.1.15-46.2c0-1.43-1.72-3.4-3.15-4.17-5.47-2.91-8.53-7.11-8.28-13.41.23-6.1,3.46-10,8.93-12.53a4.62,4.62,0,0,0,2.34-3.34c.2-14.14.16-28.28.23-42.42,0-3.16-1.85-3.75-4.42-3.39-11.74,1.65-22.53,5.74-31.43,13.68-4.23,3.77-7.55,8.56-11.5,12.67-1,1.07-2.88,1.33-4.35,2,.16-1.47-.21-3.36.57-4.34,3.46-4.37,7.19-8.54,11-12.66,2.29-2.51,5.62-3.61,8.19-6s6.48-3.79,10-5.2a63.69,63.69,0,0,1,11.15-3.55c3.66-.74,7.48-.66,11.23-1,3.45-.34,4.2,1.34,4.16,4.5-.19,14.4-.13,28.81-.26,43.21,0,3.15.36,5.27,3.92,6.74,5.19,2.13,7.7,6.69,7.62,12.44-.07,5.55-2.55,9.79-7.58,12-2.89,1.29-3.75,2.84-3.7,6q.33,22,0,44.05c0,3.64,1.24,4.64,4.6,4.45,3.91-.23,7.84,0,11.76-.11,4.38-.13,8.31,1.06,10.29,5.1s2.05,8.39-.89,12.31C187.53,201.47,187.25,202,187,202.36Zm-27.31,14.9v.13c6.3,0,12.6.13,18.89,0,4.62-.12,7.11-2.77,6.85-6.71s-2.61-5.88-7.18-5.79a15.64,15.64,0,0,1-4.16,0c-1-.28-1.87-1.34-2.79-2,1-.76,1.88-2,3-2.2,2-.42,4.21,0,6.24-.4,3.57-.67,5.23-3.14,4.95-6.69s-2.44-5.23-5.89-5.23c-13.44,0-26.89-.1-40.32.22-1.69,0-4.16,2.06-4.77,3.71a7,7,0,0,0,1.16,6c1.27,1.41,3.91,2.1,6,2.18,7,.28,14,0,21,.25,1.24,0,2.44,1.25,3.66,1.93-1.19.66-2.36,1.86-3.58,1.91-7.12.33-14.26.4-21.4.53-4.9.1-7.5,2.16-7.45,5.95s2.65,6.22,7.35,6.3C147.34,217.33,153.51,217.26,159.67,217.26Zm12.49,4.58h-25c.28,6.16,5.82,11.06,12.17,11.09C166.1,233,171.67,228.34,172.16,221.84Zm-15-113.21c-4.9,1.69-7,4.6-6.6,8.93.36,3.82,2,6.79,6.6,7.9Zm5.21,0v17c4.69-1.67,6.58-4.62,6.34-8.79C168.51,113,167.09,109.82,162.4,108.61Z"/>
          <path class="cls-3" d="M179.56,174c6-3.51,11.72-6.7,17.24-10.23.92-.58,1.69-3,1.22-3.89-4.1-7.78-3.19-14.18,1.39-22.19,3.92-6.83,9-7.47,14.78-8.38,3.87-.6,5.22-2,5-5.88-.32-4.88-.19-9.8-.11-14.7,0-2.21-.67-3.48-3-3.57-8.72-.32-14.53-3.85-18.46-12.41-2.37-5.14-3.86-9-1.15-14,.72-1.33,1-2.91,1.65-4.29,1-2.17.65-3.52-1.6-4.72-4.94-2.62-9.67-5.62-14.65-8.16a4.41,4.41,0,0,0-4.05.6c-2.71,2.6-4.94,5.7-7.58,8.39-.73.74-2.23.72-3.37,1,0-1.24-.43-2.85.18-3.65A143.3,143.3,0,0,1,177,56c.75-.79,3.23-.82,4.38-.2,6.88,3.73,13.58,7.8,20.4,11.65,2.42,1.36,3,3.09,1.81,5.54-.18.38-.3.78-.45,1.17-4.67,12-4.62,12.73,2.62,23.2a4.75,4.75,0,0,0,2.71,1.51c3.81.85,7.64,1.64,11.5,2.25,2.73.42,3.75,1.75,3.7,4.51-.13,7.7.08,15.4-.19,23.09a5,5,0,0,1-2.83,3.68,63.12,63.12,0,0,1-10.26,2c-2.69.39-4.81,1.21-5.59,4.15a6.63,6.63,0,0,1-1.54,3c-5,4.91-3.54,10.1-1.19,15.64,3.15,7.44,3,7.47-4.05,11.42-5.36,3-10.72,6.06-15.93,9.32-2.33,1.46-4,1.49-5.78-.67-3-3.55-6.17-6.88-8.94-10.56-.75-1-.31-2.9-.42-4.39,1.32.47,3,.56,3.88,1.46C173.84,167,176.6,170.5,179.56,174Z"/>
          <path class="cls-3" d="M187.35,114.68c-.8,13.95-6,22.48-16.58,27.25-1.23.55-3.09-.27-4.67-.45.9-1.2,1.55-2.93,2.75-3.51,7.65-3.68,12.12-9.57,13.39-18a22.4,22.4,0,0,0-11.66-23.1c-1-.51-2.24-.76-3-1.52a10.59,10.59,0,0,1-1.41-3.14c1.09-.27,2.34-1,3.23-.75a23.53,23.53,0,0,1,13.26,10.7C185.23,106.7,186.39,112,187.35,114.68Z"/>
          <path class="cls-3" d="M104.88,67.73c-1.44.29-3.12,1.13-3.71.65-5.49-4.49-10.83-9.18-16.1-13.94A2.67,2.67,0,0,1,85,51.85c.7-.57,2.39-1,2.9-.56,5.43,4.54,10.73,9.25,16,14C104.25,65.58,104.3,66.25,104.88,67.73Z"/>
          <path class="cls-3" d="M67.71,150.74c-.72-.57-2-1.1-2-1.72-.06-.89.54-2.42,1.23-2.68q9.77-3.66,19.7-6.86c.67-.22,2.09.65,2.54,1.39a2.59,2.59,0,0,1-.82,2.43C81.58,145.85,74.76,148.23,67.71,150.74Z"/>
          <path class="cls-3" d="M111.83,174.25a19.86,19.86,0,0,1-1.4,2.21c-4,4.65-7.9,9.38-12.1,13.84-.88.94-2.83.87-4.28,1.27.26-1.37.08-3.1.85-4,3.88-4.75,7.95-9.34,12.1-13.85a5.23,5.23,0,0,1,3.23-1.22C110.68,172.41,111.24,173.55,111.83,174.25Z"/>
          <path class="cls-3" d="M62.09,96.65c1-.22,2-.78,2.9-.62,6.44,1.16,12.86,2.37,19.24,3.81,1,.23,1.73,1.67,2.59,2.55-1.22.56-2.53,1.73-3.63,1.56q-8.47-1.29-16.83-3.21c-1.65-.38-3.09-1.65-4.63-2.52Z"/>
          <path class="cls-2" d="M159.67,217.26c-6.16,0-12.33.07-18.48,0-4.7-.08-7.29-2.41-7.35-6.3s2.55-5.85,7.45-5.95c7.14-.13,14.28-.2,21.4-.53,1.22-.05,2.39-1.25,3.58-1.91-1.22-.68-2.42-1.89-3.66-1.93-7-.21-14,0-21-.25-2.08-.08-4.72-.77-6-2.18a7,7,0,0,1-1.16-6c.61-1.65,3.08-3.67,4.77-3.71,13.43-.32,26.88-.23,40.32-.22,3.45,0,5.62,1.72,5.89,5.23s-1.38,6-4.95,6.69c-2,.38-4.22,0-6.24.4-1.09.23-2,1.44-3,2.2.92.71,1.75,1.77,2.79,2a15.64,15.64,0,0,0,4.16,0c4.57-.09,6.91,1.8,7.18,5.79s-2.23,6.59-6.85,6.71c-6.29.18-12.59,0-18.89,0Z"/>
          <path class="cls-2" d="M172.16,221.84c-.49,6.5-6.06,11.12-12.79,11.09-6.35,0-11.89-4.93-12.17-11.09h25Z"/>
          <path class="cls-2" d="M157.19,108.63v16.83c-4.61-1.11-6.24-4.08-6.6-7.9C150.18,113.23,152.29,110.32,157.19,108.63Z"/>
          <path class="cls-2" d="M162.4,108.61c4.69,1.21,6.11,4.37,6.34,8.17.24,4.17-1.65,7.12-6.34,8.79Z"/>
        </g>
      </g>
    </g>
  </g>
</svg>
