<svg xmlns="http://www.w3.org/2000/svg" viewBox="0 0 286.46 286.46">
  <defs>
    <style>
      .cls-1 {
        fill: none;
        stroke-width: 3px;
      }

      .cls-1, .cls-3 {
        stroke: #228b22;
      }

      .cls-1, .cls-2, .cls-3 {
        stroke-miterlimit: 10;
      }

      .cls-2 {
        fill: #fff;
        stroke: #fff;
      }

      .cls-3 {
        fill: #228b22;
      }
    </style>
  </defs>
  <g id="Calque_2" data-name="Calque 2">
    <g id="Calque_1-2" data-name="Calque 1">
      <g>
        <circle class="cls-1" cx="143.23" cy="143.23" r="141.73"/>
        <g>
          <rect class="cls-2" x="44.86" y="56.88" width="196.75" height="172.7"/>
          <g>
            <path class="cls-3" d="M203.53,107H173.38a11.29,11.29,0,0,0,0-1.71,2.58,2.58,0,0,0-2.57-2.31h-4.86a33.21,33.21,0,0,1,0-3.84c0-.75,0-1.56,0-2.55,1.05,0,2.15,0,3.21.08s2.44.09,3.63.09c3,0,10.89,0,11.22-7.46.14-3.13-2.4-7.25-6-8.09a14.31,14.31,0,0,0-3.38-.33c-1.06,0-2.14.06-3.28.13s-2.28.13-3.41.13h-19c-.8,0-1.68,0-2.6-.08s-2-.08-3-.08a13,13,0,0,0-4.55.61c-3.51,1.31-4.78,5.23-4.84,6.92a7.35,7.35,0,0,0,1.88,5.63c2.23,2.32,5.89,2.63,9.18,2.63h0c1.17,0,2.41,0,3.61-.08s2.3-.08,3.43-.09V103H147.2a2.58,2.58,0,0,0-2.58,2.59v1.52c-1,0-2.12,0-3.26,0-3.05,0-6.05-.08-8.94-.17s-5.47-.15-8.12-.15c-2.47,0-4.63.07-6.59.21a32.81,32.81,0,0,0-20.35,9,31.58,31.58,0,0,0-9.63,20.07,116.19,116.19,0,0,0-.06,14.59c.13,3.76.27,7.63.15,11.51h-.11c-.42,0-.84-.05-1.28-.05a8.55,8.55,0,0,0-1.06.06,2.58,2.58,0,0,0-2.25,2.56v5.75a2.59,2.59,0,0,0,2.59,2.59H124.5a2.59,2.59,0,0,0,2.59-2.59v-5.75a2.59,2.59,0,0,0-2.59-2.58h-1.79c.07-2.33-.08-4.87-.22-7.36-.3-5-.69-11.77,1.52-12.65a9.45,9.45,0,0,1,3.32-.43c1.13,0,2.34.08,3.62.16s2.63.16,3.9.16h9.8c0,.21,0,.4,0,.56a17.36,17.36,0,0,0,0,2.6,2.58,2.58,0,0,0,2.57,2.3h23.57a2.58,2.58,0,0,0,2.58-2.58v-2.88h30.18a2.59,2.59,0,0,0,2.59-2.58V109.59A2.59,2.59,0,0,0,203.53,107Z"/>
            <path class="cls-3" d="M115.08,191.15c-.69-1-1.33-1.86-1.89-2.75a65.75,65.75,0,0,1-5.54-10.52,2.6,2.6,0,0,0-1.86-1.56,2.7,2.7,0,0,0-.63-.07,2.75,2.75,0,0,0-2.68,2.09,86.59,86.59,0,0,1-8,14.27c-.23.34-.47.67-.73,1a13,13,0,0,0-2.52,4.72,15.09,15.09,0,0,0,1.93,12,13.7,13.7,0,0,0,9.06,6.09,14.14,14.14,0,0,0,2.52.22h0a15.25,15.25,0,0,0,11.75-5.55A14.19,14.19,0,0,0,119.27,199C118.67,196.17,116.84,193.62,115.08,191.15Z"/>
          </g>
        </g>
      </g>
    </g>
  </g>
</svg>
