<svg xmlns="http://www.w3.org/2000/svg" viewBox="0 0 286.46 286.46">
  <defs>
    <style>
      .cls-1 {
        fill: none;
        stroke-width: 3px;
      }

      .cls-1, .cls-3 {
        stroke: #228b22;
        stroke-miterlimit: 10;
      }

      .cls-2 {
        fill: #fff;
      }

      .cls-3 {
        fill: #228b22;
      }
    </style>
  </defs>
  <g id="Calque_2" data-name="Calque 2">
    <g id="Calque_1-2" data-name="Calque 1">
      <g>
        <circle class="cls-1" cx="143.23" cy="143.23" r="141.73"/>
        <g>
          <path class="cls-2" d="M226.06,173v60H60.41V53.45H226.06V172.56c-1.41-.46-2.8-1-4.22-1.38-1.86-.52-2.5-1.61-2.49-3.59.1-21.72.1-43.43.18-65.15a8.64,8.64,0,0,1,.74-3.19c1.48-3.48,3.07-6.9,4.66-10.45a8.22,8.22,0,0,1-2.42-1.07c-2.3-2.29-5.08-2.11-7.94-1.79a15.71,15.71,0,0,0-2.66.31,2.7,2.7,0,0,0-1.65,1.1c-2.32,5.33-4.52,10.7-6.78,16.05q-10.42,24.72-20.84,49.45c-.58,1.36-1.28,1.57-2.58,1q-6.34-2.81-12.76-5.44a4.13,4.13,0,0,1-2.69-3.2q-6.41-27.2-13-54.37c-1.51-6.28-3-12.57-4.55-18.91-2.79.07-5.55-.7-7.78,1.66.43,1.83.9,3.71,1.28,5.6a5.38,5.38,0,0,1,.12,2.18c-.66,3-1.35,6-2.19,8.9A2.35,2.35,0,0,1,137,91.65c-2,.31-4,.38-6,.52a2.16,2.16,0,0,0-2.31,1.88c-3.28,14.31-6.64,28.6-10,42.89-.58,2.49-1.21,5-1.81,7.44a6.06,6.06,0,0,1-1-2.42q-7.29-31.8-14.57-63.62c-1.11-4.83-1.14-4.83-6.07-4.67-3.1.11-3.75,1-3.17,4,.51,2.58,1.49,5,.63,7.87-7.19,23.58-14.22,47.22-21.34,70.83-.63,2.11-1.06,4.15-.27,6.3.46,1.23,0,1.94-1.32,2.21-2.12.42-4.2,1-6.32,1.44a2.33,2.33,0,0,0-2,2.5c-.18,2.1.74,3.47,2.2,4.81,2.37,2.18,4.81,4.12,5.25,7.91.28,2.43,2.9,4,5.21,5.64l.92-2.26a4,4,0,0,1,.71.4q6.84,6.6,13.67,13.22a2.16,2.16,0,0,1,.75,1.31c-.05,4.22,2.71,6.76,5.49,9.28a5.07,5.07,0,0,0,2.31,1.53c.42.06,1-1.27,1.64-2.15,1.52,1.45,3.09,2.82,4.5,4.32a2.78,2.78,0,0,0,3.34.86q8.38-2.74,16.87-5.2c3.66-1.06,7.4-1.86,11.19-2.81.2.7.34,1,.4,1.39.47,3.1.79,3.33,3.68,2.43,3.06-.95,6.09-2,9.17-2.87,2-.55,3.06-1.52,3.16-3.7a3.53,3.53,0,0,1,1.38-2.54,25.37,25.37,0,0,1,5.29-2.28c4.32-1.39,8.68-2.67,13-4,6-1.77,12-3.51,18.19-5.29a14.5,14.5,0,0,1,.37,1.58c.28,2.9.45,3,3.29,2.11,2.27-.72,4.53-1.5,6.82-2.14a3.6,3.6,0,0,0,2.85-3.28,3.56,3.56,0,0,1,1.29-2.37,22.15,22.15,0,0,1,4.69-2c4.4-1.4,8.8-2.81,13.26-4,2.15-.57,3.53-1.34,3.19-3.86C225.44,174.3,225.87,173.64,226.06,173Z"/>
          <path class="cls-3" d="M226.06,173c-.19.63-.62,1.29-.54,1.88.34,2.52-1,3.29-3.19,3.86-4.46,1.18-8.86,2.59-13.26,4a22.15,22.15,0,0,0-4.69,2,3.56,3.56,0,0,0-1.29,2.37,3.6,3.6,0,0,1-2.85,3.28c-2.29.64-4.55,1.42-6.82,2.14-2.84.91-3,.79-3.29-2.11a14.5,14.5,0,0,0-.37-1.58c-6.15,1.78-12.17,3.52-18.19,5.29-4.35,1.28-8.71,2.56-13,4a25.37,25.37,0,0,0-5.29,2.28,3.53,3.53,0,0,0-1.38,2.54c-.1,2.18-1.19,3.15-3.16,3.7-3.08.86-6.11,1.92-9.17,2.87-2.89.9-3.21.67-3.68-2.43-.06-.35-.2-.69-.4-1.39-3.79.95-7.53,1.75-11.19,2.81q-8.49,2.44-16.87,5.2a2.78,2.78,0,0,1-3.34-.86c-1.41-1.5-3-2.87-4.5-4.32-.63.88-1.22,2.21-1.64,2.15a5.07,5.07,0,0,1-2.31-1.53c-2.78-2.52-5.54-5.06-5.49-9.28a2.16,2.16,0,0,0-.75-1.31q-6.81-6.63-13.67-13.22a4,4,0,0,0-.71-.4l-.92,2.26c-2.31-1.6-4.93-3.21-5.21-5.64-.44-3.79-2.88-5.73-5.25-7.91-1.46-1.34-2.38-2.71-2.2-4.81a2.33,2.33,0,0,1,2-2.5c2.12-.44,4.2-1,6.32-1.44,1.36-.27,1.78-1,1.32-2.21-.79-2.15-.36-4.19.27-6.3,7.12-23.61,14.15-47.25,21.34-70.83.86-2.85-.12-5.29-.63-7.87-.58-3,.07-3.86,3.17-4,4.93-.16,5-.16,6.07,4.67q7.31,31.82,14.57,63.62a6.06,6.06,0,0,0,1,2.42c.6-2.48,1.23-4.95,1.81-7.44,3.34-14.29,6.7-28.58,10-42.89a2.16,2.16,0,0,1,2.31-1.88c2-.14,4-.21,6-.52a2.35,2.35,0,0,0,1.59-1.38c.84-2.94,1.53-5.92,2.19-8.9a5.38,5.38,0,0,0-.12-2.18c-.38-1.89-.85-3.77-1.28-5.6,2.23-2.36,5-1.59,7.78-1.66,1.53,6.34,3,12.63,4.55,18.91q6.5,27.18,13,54.37a4.13,4.13,0,0,0,2.69,3.2q6.4,2.64,12.76,5.44c1.3.57,2,.36,2.58-1Q193,128.12,203.48,103.4c2.26-5.35,4.46-10.72,6.78-16.05a2.7,2.7,0,0,1,1.65-1.1,15.71,15.71,0,0,1,2.66-.31c2.86-.32,5.64-.5,7.94,1.79a8.22,8.22,0,0,0,2.42,1.07c-1.59,3.55-3.18,7-4.66,10.45a8.64,8.64,0,0,0-.74,3.19c-.08,21.72-.08,43.43-.18,65.15,0,2,.63,3.07,2.49,3.59,1.42.4,2.81.92,4.22,1.38Zm-56.62-17.62c.38.75.75,1.5,1.14,2.23.31.55.52,1.33,1,1.58,1.61.88,3.33,1.56,4.5,2.09l3.22-2.2-9.84-3.68a26.79,26.79,0,0,1-4.41-1.33,9.55,9.55,0,0,0-6.87-.62c-1.79.42-2.13.95-1.61,2.67,2.43,8,4.67,16,7.13,24,1,3.21,1.81,6.28-.24,9.36-.13.18,0,.53,0,1.12l7.77-2.22c-1.11-2.07-2.41-3.55-1.26-6,3-6.39,5.64-13,8.4-19.48a27.33,27.33,0,0,0,.8-2.68c-1.13,1-2.05,2.22-2.5,2.07a21.39,21.39,0,0,1-6.19-2.94C169.61,158.68,169.75,156.75,169.44,155.39Zm-82.25,13c-5.5,1.14-10.74,2.2-16,3.34A10,10,0,0,0,69,172.88a9,9,0,0,0,1.3,2.12c8.49,7.94,17,15.9,25.58,23.72,2,1.83,4.47,3.18,7.12,5,3.24-13.78,6.35-27,9.57-40.69-3.88.79-7.22,1.41-10.52,2.22-.48.12-.69,1.22-1.08,1.84-.55.88-1,2.26-1.75,2.49-3.07.89-6.23,1.44-9.37,2.06a1.62,1.62,0,0,1-2.14-1.62A12.76,12.76,0,0,0,87.19,168.38Zm63.38,32.13-13.76,4.21c.05.58.08.94.11,1.3.21,3,.24,3,3.19,2.1,2.33-.71,4.66-1.46,7-2.2C150.68,204.8,150.7,204.78,150.57,200.51Zm41-8.44c2.58-.79,5-1.51,7.39-2.28,2.88-.92,3.24-1.56,2.66-4.73l-7.7,2.29C190.85,188.29,190.85,188.29,191.59,192.07Zm-92-26.39c-3.37.74-6.64,1.38-9.85,2.24-.49.13-.7,1.27-1,2,.57.26,1.19.82,1.71.73,2.49-.41,4.93-1.09,7.41-1.5C99.72,168.78,100.32,167.86,99.54,165.68Zm-2.5,43c.66-2.28-2.15-5.82-5.22-7.07C92.06,205.12,95.14,206.23,97,208.71ZM73,185c.44-2.14-.71-3.68-3.36-4.9C69.44,182.57,71.52,183.34,73,185Z"/>
          <path class="cls-2" d="M87.19,168.38a12.76,12.76,0,0,1,.47,1.67,1.62,1.62,0,0,0,2.14,1.62c3.14-.62,6.3-1.17,9.37-2.06.76-.23,1.2-1.61,1.75-2.49.39-.62.6-1.72,1.08-1.84,3.3-.81,6.64-1.43,10.52-2.22-3.22,13.71-6.33,26.91-9.57,40.69-2.65-1.85-5.11-3.2-7.12-5C87.22,190.9,78.74,182.94,70.25,175a9,9,0,0,1-1.3-2.12,10,10,0,0,1,2.27-1.16C76.45,170.58,81.69,169.52,87.19,168.38Z"/>
          <path class="cls-2" d="M169.44,155.39c.31,1.36.17,3.29,1,4a21.39,21.39,0,0,0,6.19,2.94c.45.15,1.37-1.09,2.5-2.07a27.33,27.33,0,0,1-.8,2.68C175.59,169.4,173,176,170,182.37c-1.15,2.43.15,3.91,1.26,6l-7.77,2.22c0-.59-.11-.94,0-1.12,2-3.08,1.24-6.15.24-9.36-2.46-8-4.7-16-7.13-24-.52-1.72-.18-2.25,1.61-2.67a9.55,9.55,0,0,1,6.87.62,27.63,27.63,0,0,0,4.42,1.34S169.44,155.39,169.44,155.39Z"/>
          <path class="cls-2" d="M150.57,200.51c.13,4.27.11,4.29-3.47,5.41-2.33.74-4.66,1.49-7,2.2-3,.9-3,.87-3.19-2.1,0-.36-.06-.72-.11-1.3Z"/>
          <path class="cls-2" d="M191.59,192.07c-.74-3.78-.74-3.78,2.35-4.72l7.7-2.29c.58,3.17.22,3.81-2.66,4.73C196.59,190.56,194.17,191.28,191.59,192.07Z"/>
          <path class="cls-2" d="M99.54,165.68c.78,2.18.18,3.1-1.77,3.42-2.48.41-4.92,1.09-7.41,1.5-.52.09-1.14-.47-1.71-.73.34-.68.55-1.82,1-2C92.9,167.06,96.17,166.42,99.54,165.68Z"/>
          <path class="cls-2" d="M169.44,155.39s0,0,0,0l9.83,3.67-3.22,2.2c-1.17-.53-2.89-1.21-4.5-2.09-.48-.25-.69-1-1-1.58C170.19,156.89,169.82,156.14,169.44,155.39Z"/>
          <path class="cls-2" d="M97,208.71c-1.9-2.48-5-3.59-5.22-7.07C94.89,202.89,97.7,206.43,97,208.71Z"/>
          <path class="cls-2" d="M73,185c-1.5-1.62-3.58-2.39-3.36-4.9C72.31,181.28,73.46,182.82,73,185Z"/>
        </g>
      </g>
    </g>
  </g>
</svg>
