<svg xmlns="http://www.w3.org/2000/svg" viewBox="0 0 286.46 286.46">
  <defs>
    <style>
      .cls-1 {
        fill: none;
        stroke-width: 3px;
      }

      .cls-1, .cls-2 {
        stroke: #228b22;
        stroke-miterlimit: 10;
      }

      .cls-2 {
        fill: #228b22;
      }

      .cls-3 {
        fill: #fff;
      }
    </style>
  </defs>
  <g id="Calque_2" data-name="Calque 2">
    <g id="Calque_1-2" data-name="Calque 1">
      <g>
        <circle class="cls-1" cx="143.23" cy="143.23" r="141.73"/>
        <g>
          <path class="cls-2" d="M206.79,149.62a3.21,3.21,0,0,1-3.31-3.19,3.38,3.38,0,0,1,3.24-3.5,3.59,3.59,0,0,1,3.4,3.44A3.46,3.46,0,0,1,206.79,149.62Z"/>
          <path class="cls-2" d="M95,150.53a25.23,25.23,0,0,1,12.49-6.82c.1,0,.2-.11.3-.11,3.2.28,5.09-1.78,7.08-3.83,4.37-4.5,8.82-8.92,13.3-13.32,4.13-4.06,10.62-4.59,14.82-1.29a11.18,11.18,0,0,1,2.12,15.74c-3.56,4.89-7.18,9.74-10.56,14.75-2.38,3.53-2.16,7.36.09,10.9a9.39,9.39,0,0,0,9.47,4.53c11.88-1.33,23.79-1.25,35.71-1.17a3.21,3.21,0,0,1,3.1,2.19,2.79,2.79,0,0,1-.92,3.51c-1.73,1.32-3.61,2.45-5.47,3.61-7.64,4.77-15.2,9.68-23,14.2a24.5,24.5,0,0,1-8.54,2.73,73.26,73.26,0,0,1-12.3.68,81.18,81.18,0,0,1-9.89-1.31q-11-1.64-21.92-3.33c-4.28-.65-8.54-1.34-12.82-1.94a4.09,4.09,0,0,0-2.19.31c-5.57,2.64-11.16,5.14-17.36,5.9a13.67,13.67,0,0,1-1.56.13c-3.07.07-4.3-1.12-4.31-4.18q0-7.38,0-14.75V148.94c0-.73,0-1.46,0-2.19.17-2.56,1.54-3.87,4.08-3.53,5.46.72,10.92,1.5,16.34,2.48A28.63,28.63,0,0,1,95,150.53Zm72.61,26.31-.09-.27c-2.8,0-5.62-.13-8.41,0-5.26.31-10.51.85-15.76,1.18a15.1,15.1,0,0,1-12.33-5,16.55,16.55,0,0,1-1.8-21.23c3.24-4.91,6.85-9.58,10.3-14.35,1.77-2.45,1.62-4.84-.41-6.54-1.85-1.53-4.41-1.22-6.43.79C127.1,137,121.54,142.5,116,148.06a5.17,5.17,0,0,1-3.69,1.76,17.46,17.46,0,0,0-8.61,2.43c-3.42,2-6.26,4.63-7.42,8.5-1.42,4.77-2.53,9.62-3.75,14.44-.71,2.8-1.39,5.6-2.1,8.46a6.55,6.55,0,0,0,.84.29l12.95,2c6.48,1,13,2.06,19.45,3A92.48,92.48,0,0,0,137,190.21c5.38,0,10.74-.65,15.48-3.91S162.54,180,167.57,176.84Zm-98.23,13c3.48-1.29,6.59-2.58,9.78-3.59,2.86-.92,4.32-2.58,5.07-5.62,2.09-8.57,4.14-17.12,5-26-6.33-2.7-13-3.58-19.85-4.49Z"/>
          <path class="cls-2" d="M216.59,116.32H116.22c0,2.85,0,5.61,0,8.36a12.2,12.2,0,0,1-.21,2.18,3.24,3.24,0,0,1-6.36,0,8.07,8.07,0,0,1-.21-1.7c0-6.22,0-12.45,0-18.67a16.84,16.84,0,0,1,13.61-16.79,20.2,20.2,0,0,1,4-.32q39.39,0,78.78,0c8.39,0,14.85,4.88,16.91,12.82a15.18,15.18,0,0,1,.5,3.85q0,20,0,40a16.63,16.63,0,0,1-14.75,16.83c-3.67.42-7.42.11-11.13.11H146.89c-3,0-4.73-2.24-3.58-4.67a3.35,3.35,0,0,1,3.31-1.93h26.2c10.94,0,21.87,0,32.8,0,5.52,0,9.35-2.78,10.6-7.52a13.49,13.49,0,0,0,.41-3.41c0-9.36,0-18.73,0-28.09C216.65,117.07,216.61,116.77,216.59,116.32Zm-100.26-6.85h96c4.55,0,4.55,0,4.11-4.58A9.76,9.76,0,0,0,207,96.16q-40.54,0-81.11,0a9.38,9.38,0,0,0-6.49,2.7C116.25,101.75,115.94,105.45,116.33,109.47Z"/>
          <path class="cls-2" d="M210.12,126.34a12.05,12.05,0,0,1-1.44,2.45Q199,138.6,189.2,148.31c-1.65,1.63-3.75,1.74-5.1.33s-1.27-3.35.37-5q9.72-9.78,19.49-19.51a3.26,3.26,0,0,1,3.95-.9A3.81,3.81,0,0,1,210.12,126.34Z"/>
          <path class="cls-2" d="M163.13,142.92c3.13,0,6.27,0,9.4,0,2.73,0,4.33,1.92,3.7,4.3a2.86,2.86,0,0,1-2.47,2.28,18.13,18.13,0,0,1-2.33.17H154c-2.33,0-3.72-.8-4.17-2.3-.73-2.39.92-4.41,3.7-4.45C156.76,142.89,159.94,142.92,163.13,142.92Z"/>
          <path class="cls-2" d="M164.84,136.33c-2.66,0-5.33,0-8,0a3.57,3.57,0,0,1-3.47-2,2.72,2.72,0,0,1,.37-3.34,5.09,5.09,0,0,1,2.94-1.38c5.33-.13,10.66-.1,16,0,2.24,0,3.76,1.47,3.75,3.35s-1.64,3.36-3.9,3.39C170,136.35,167.4,136.33,164.84,136.33Z"/>
          <path class="cls-2" d="M186.73,129.54a3.24,3.24,0,0,1-3.34-3.18,3.4,3.4,0,0,1,3.23-3.52,3.61,3.61,0,0,1,3.41,3.42A3.43,3.43,0,0,1,186.73,129.54Z"/>
          <path class="cls-3" d="M167.57,176.84c-5,3.14-10.18,6.1-15.06,9.46s-10.1,3.87-15.48,3.91a92.48,92.48,0,0,1-13.34-1.34c-6.5-.89-13-2-19.45-3l-12.95-2a6.55,6.55,0,0,1-.84-.29c.71-2.86,1.39-5.66,2.1-8.46,1.22-4.82,2.33-9.67,3.75-14.44,1.16-3.87,4-6.5,7.42-8.5a17.46,17.46,0,0,1,8.61-2.43,5.17,5.17,0,0,0,3.69-1.76c5.52-5.56,11.08-11.1,16.62-16.64,2-2,4.58-2.32,6.43-.79,2,1.7,2.18,4.09.41,6.54-3.45,4.77-7.06,9.44-10.3,14.35a16.55,16.55,0,0,0,1.8,21.23,15.1,15.1,0,0,0,12.33,5c5.25-.33,10.5-.87,15.76-1.18,2.79-.16,5.61,0,8.41,0Z"/>
          <path class="cls-3" d="M69.34,189.88V150.14c6.8.91,13.52,1.79,19.85,4.49-.86,8.92-2.91,17.47-5,26-.75,3-2.21,4.7-5.07,5.62C75.93,187.3,72.82,188.59,69.34,189.88Z"/>
          <path class="cls-3" d="M116.33,109.47c-.39-4-.08-7.72,3-10.61a9.38,9.38,0,0,1,6.49-2.7q40.56,0,81.11,0a9.76,9.76,0,0,1,9.45,8.73c.44,4.58.44,4.58-4.11,4.58Z"/>
          <path class="cls-3" d="M253,62.89H33.49V223.58H253ZM182,175.61c-1.73,1.32-3.61,2.45-5.47,3.61-7.64,4.77-15.2,9.68-23,14.2a24.5,24.5,0,0,1-8.54,2.73,73.26,73.26,0,0,1-12.3.68,81.18,81.18,0,0,1-9.89-1.31q-11-1.64-21.92-3.33c-4.28-.65-8.54-1.34-12.82-1.94a4.09,4.09,0,0,0-2.19.31c-5.57,2.64-11.16,5.14-17.36,5.9a13.67,13.67,0,0,1-1.56.13c-3.07.07-4.3-1.12-4.31-4.18q0-7.38,0-14.75V148.94c0-.73,0-1.46,0-2.19.17-2.56,1.54-3.87,4.08-3.53,5.46.72,10.92,1.5,16.34,2.48A28.63,28.63,0,0,1,95,150.53a25.23,25.23,0,0,1,12.49-6.82c.1,0,.2-.11.3-.11,3.2.28,5.09-1.78,7.08-3.83,4.37-4.5,8.82-8.92,13.3-13.32,4.13-4.06,10.62-4.59,14.82-1.29a11.18,11.18,0,0,1,2.12,15.74c-3.56,4.89-7.18,9.74-10.56,14.75-2.38,3.53-2.16,7.36.09,10.9a9.39,9.39,0,0,0,9.47,4.53c11.88-1.33,23.79-1.25,35.71-1.17a3.21,3.21,0,0,1,3.1,2.19A2.79,2.79,0,0,1,182,175.61Zm26.59-12.7c-3.67.42-7.42.11-11.13.11H146.89c-3,0-4.73-2.24-3.58-4.67a3.35,3.35,0,0,1,3.31-1.93h26.2c10.94,0,21.87,0,32.8,0,5.52,0,9.35-2.78,10.6-7.52a13.49,13.49,0,0,0,.41-3.41c0-9.36,0-18.73,0-28.09,0-.31,0-.61-.06-1.06H116.22c0,2.85,0,5.61,0,8.36a12.2,12.2,0,0,1-.21,2.18,3.24,3.24,0,0,1-6.36,0,8.07,8.07,0,0,1-.21-1.7c0-6.22,0-12.45,0-18.67a16.84,16.84,0,0,1,13.61-16.79,20.2,20.2,0,0,1,4-.32q39.39,0,78.78,0c8.39,0,14.85,4.88,16.91,12.82a15.18,15.18,0,0,1,.5,3.85q0,20,0,40A16.63,16.63,0,0,1,208.55,162.91Zm-55-20c3.19,0,6.37,0,9.56,0s6.27,0,9.4,0c2.73,0,4.33,1.92,3.7,4.3a2.86,2.86,0,0,1-2.47,2.28,18.13,18.13,0,0,1-2.33.17H154c-2.33,0-3.72-.8-4.17-2.3C149.14,145,150.79,143,153.57,142.93Zm.18-11.92a5.09,5.09,0,0,1,2.94-1.38c5.33-.13,10.66-.1,16,0,2.24,0,3.76,1.47,3.75,3.35s-1.64,3.36-3.9,3.39c-2.56,0-5.13,0-7.69,0s-5.33,0-8,0a3.57,3.57,0,0,1-3.47-2A2.72,2.72,0,0,1,153.75,131Zm30.72,12.63q9.72-9.78,19.49-19.51a3.26,3.26,0,0,1,3.95-.9,3.81,3.81,0,0,1,2.21,3.11,12.05,12.05,0,0,1-1.44,2.45Q199,138.6,189.2,148.31c-1.65,1.63-3.75,1.74-5.1.33S182.83,145.29,184.47,143.64Zm-1.08-17.28a3.4,3.4,0,0,1,3.23-3.52,3.61,3.61,0,0,1,3.41,3.42,3.43,3.43,0,0,1-3.3,3.28A3.24,3.24,0,0,1,183.39,126.36Zm26.73,20a3.46,3.46,0,0,1-3.33,3.25,3.21,3.21,0,0,1-3.31-3.19,3.38,3.38,0,0,1,3.24-3.5A3.59,3.59,0,0,1,210.12,146.37Z"/>
        </g>
      </g>
    </g>
  </g>
</svg>
